[{"year":1394,"month":1,"day":1,"description":"جشن نوروز"},
{"year":1394,"month":1,"day":2,"description":"عید نوروز"},
{"year":1394,"month":1,"day":3,"description":"عید نوروز"},
{"year":1394,"month":1,"day":4,"description":"عید نوروز -  شهادت حضرت فاطمه زهرا سلام الله علیها "},
{"year":1394,"month":1,"day":12,"description":"روز جمهوری اسلامی ایران"},
{"year":1394,"month":1,"day":13,"description":"جشن سیزده بدر"},
{"year":1394,"month":2,"day":12,"description":"ولادت امام علی علیه السلام "},
{"year":1394,"month":2,"day":26,"description":"مبعث رسول اکرم"},
{"year":1394,"month":3,"day":13,"description":"ولادت حضرت قائم عجل الله تعالی فرجه و جشن نیمه شعبان"},
{"year":1394,"month":3,"day":14,"description":"رحلت حضرت امام خمینی"},
{"year":1394,"month":3,"day":15,"description":"قیام 15 خرداد"},
{"year":1394,"month":4,"day":17,"description":"شهادت حضرت علی علیه السلام"},
{"year":1394,"month":4,"day":27,"description":"عید سعید فطر"},
{"year":1394,"month":4,"day":28,"description":"تعطیل به مناسبت عید سعید فطر"},
{"year":1394,"month":5,"day":20,"description":" شهادت امام جعفر صادق علیه السلام "},
{"year":1394,"month":7,"day":2,"description":" عید سعید قربان "},
{"year":1394,"month":7,"day":10,"description":"عید سعید غدیر خم"},
{"year":1394,"month":8,"day":1,"description":" تاسوعای حسینی"},
{"year":1394,"month":8,"day":2,"description":" عاشورای حسینی"},
{"year":1394,"month":9,"day":11,"description":"اربعین حسینی"},
{"year":1394,"month":9,"day":19,"description":" رحلت رسول اکرم؛شهادت امام حسن مجتبی علیه السلام"},
{"year":1394,"month":9,"day":21,"description":" شهادت امام رضا علیه السلام"},
{"year":1394,"month":10,"day":8,"description":"میلاد رسول اکرم و امام جعفر صادق علیه السلام"},
{"year":1394,"month":11,"day":22,"description":"پیروزی انقلاب اسلامی"},
{"year":1394,"month":12,"day":23,"description":"شهادت حضرت فاطمه زهرا سلام الله علیها "},
{"year":1394,"month":12,"day":29,"description":"روز ملی شدن صنعت نفت ایران"}]